{
  "project_info": {
    "project_number": "277793205960",
    "firebase_url": "https://friends-over-food.firebaseio.com",
    "project_id": "friends-over-food",
    "storage_bucket": "friends-over-food.appspot.com"
  },
  "client": [
    {
      "client_info": {
        "mobilesdk_app_id": "1:277793205960:android:22b446bf6a0e02c5",
        "android_client_info": {
          "package_name": "com.fof.android"
        }
      },
      "oauth_client": [
        {
          "client_id": "277793205960-171g47mrll8oumn3f85et10qrag732de.apps.googleusercontent.com",
          "client_type": 1,
          "android_info": {
            "package_name": "com.fof.android",
            "certificate_hash": "1f1a6d669b1edbe68f226a1be95bbedc469a2d0e"
          }
        },
        {
          "client_id": "277793205960-1pq7qvs011kdv0gp67bmo6m49cupslnb.apps.googleusercontent.com",
          "client_type": 1,
          "android_info": {
            "package_name": "com.fof.android",
            "certificate_hash": "953af6ed9c4b96cac8c0ef3297fd8740a7776129"
          }
        },
        {
          "client_id": "277793205960-4bhdo1qo63rhqs658un35r7qd8u3l119.apps.googleusercontent.com",
          "client_type": 1,
          "android_info": {
            "package_name": "com.fof.android",
            "certificate_hash": "8e87bc184f299cff2cf18809d0a5e35ca5be0810"
          }
        },
        {
          "client_id": "277793205960-k7lj7na4vq4kcai4i11glivdpqnunapj.apps.googleusercontent.com",
          "client_type": 1,
          "android_info": {
            "package_name": "com.fof.android",
            "certificate_hash": "7faa8861ee23d7dbeb6ed2073fa19863d222028d"
          }
        },
        {
          "client_id": "277793205960-4reedef3e1oet73p249h1o3jot4iud7p.apps.googleusercontent.com",
          "client_type": 1,
          "android_info": {
            "package_name": "com.fof.android",
            "certificate_hash": "910b4dc4336753a881ddac69c5379dbc9ef4b170"
          }
        },
        {
          "client_id": "277793205960-pfoklellp5q3a6r6esoaui5hvb3bk0fq.apps.googleusercontent.com",
          "client_type": 3
        },
        {
          "client_id": "277793205960-3gjv89l29dq59okb08dsr08fjm9chd1d.apps.googleusercontent.com",
          "client_type": 1,
          "android_info": {
            "package_name": "com.fof.android",
            "certificate_hash": "5c2da69ebbffba4372096a1715cec46113dd07ec"
          }
        },
        {
          "client_id": "277793205960-0er243gu74beafvutv2d4qoku9296ifb.apps.googleusercontent.com",
          "client_type": 3
        }
      ],
      "api_key": [
        {
          "current_key": "AIzaSyAdGEh418wu1m1818UwfpiuAtRN_ZqJ0Zc"
        }
      ],
      "services": {
        "analytics_service": {
          "status": 1
        },
        "appinvite_service": {
          "status": 2,
          "other_platform_oauth_client": [
            {
              "client_id": "277793205960-pfoklellp5q3a6r6esoaui5hvb3bk0fq.apps.googleusercontent.com",
              "client_type": 3
            }
          ]
        },
        "ads_service": {
          "status": 2
        }
      }
    },
    {
      "client_info": {
        "mobilesdk_app_id": "1:277793205960:android:c1732b114093dd17",
        "android_client_info": {
          "package_name": "com.friendsoverfood.android"
        }
      },
      "oauth_client": [
        {
          "client_id": "277793205960-7u2uk0od3p80vv46fk62bssd2rerkj4b.apps.googleusercontent.com",
          "client_type": 1,
          "android_info": {
            "package_name": "com.friendsoverfood.android",
            "certificate_hash": "5c2da69ebbffba4372096a1715cec46113dd07ec"
          }
        },
        {
          "client_id": "277793205960-lois5lopt3dr3rsmej0hqlhss537lqr9.apps.googleusercontent.com",
          "client_type": 1,
          "android_info": {
            "package_name": "com.friendsoverfood.android",
            "certificate_hash": "7faa8861ee23d7dbeb6ed2073fa19863d222028d"
          }
        },
        {
          "client_id": "277793205960-sh2q58nv0vhlp250o41fo7q4g872f02u.apps.googleusercontent.com",
          "client_type": 1,
          "android_info": {
            "package_name": "com.friendsoverfood.android",
            "certificate_hash": "8e87bc184f299cff2cf18809d0a5e35ca5be0810"
          }
        },
        {
          "client_id": "277793205960-p8dv1s270kvr5ntokevid7a4gfo5cbd6.apps.googleusercontent.com",
          "client_type": 1,
          "android_info": {
            "package_name": "com.friendsoverfood.android",
            "certificate_hash": "910b4dc4336753a881ddac69c5379dbc9ef4b170"
          }
        },
        {
          "client_id": "277793205960-pfoklellp5q3a6r6esoaui5hvb3bk0fq.apps.googleusercontent.com",
          "client_type": 3
        },
        {
          "client_id": "277793205960-0er243gu74beafvutv2d4qoku9296ifb.apps.googleusercontent.com",
          "client_type": 3
        }
      ],
      "api_key": [
        {
          "current_key": "AIzaSyAdGEh418wu1m1818UwfpiuAtRN_ZqJ0Zc"
        }
      ],
      "services": {
        "analytics_service": {
          "status": 1
        },
        "appinvite_service": {
          "status": 2,
          "other_platform_oauth_client": [
            {
              "client_id": "277793205960-pfoklellp5q3a6r6esoaui5hvb3bk0fq.apps.googleusercontent.com",
              "client_type": 3
            }
          ]
        },
        "ads_service": {
          "status": 2
        }
      }
    }
  ],
  "configuration_version": "1"
}